\relax 
\providecommand\hyper@newdestlabel[2]{}
\providecommand\HyperFirstAtBeginDocument{\AtBeginDocument}
\HyperFirstAtBeginDocument{\ifx\hyper@anchor\@undefined
\global\let\oldcontentsline\contentsline
\gdef\contentsline#1#2#3#4{\oldcontentsline{#1}{#2}{#3}}
\global\let\oldnewlabel\newlabel
\gdef\newlabel#1#2{\newlabelxx{#1}#2}
\gdef\newlabelxx#1#2#3#4#5#6{\oldnewlabel{#1}{{#2}{#3}}}
\AtEndDocument{\ifx\hyper@anchor\@undefined
\let\contentsline\oldcontentsline
\let\newlabel\oldnewlabel
\fi}
\fi}
\global\let\hyper@last\relax 
\gdef\HyperFirstAtBeginDocument#1{#1}
\providecommand\HyField@AuxAddToFields[1]{}
\providecommand\HyField@AuxAddToCoFields[2]{}
\providecommand \oddpage@label [2]{}
\select@language{american}
\@writefile{toc}{\select@language{american}}
\@writefile{lof}{\select@language{american}}
\@writefile{lot}{\select@language{american}}
\@writefile{toc}{\contentsline {section}{\numberline {1}Introduction}{1}{section.1}}
\newlabel{sec:problem-1}{{1}{1}{Introduction}{section.1}{}}
\citation{knuth}
\citation{entropy}
\@writefile{lof}{\contentsline {figure}{\numberline {1}{\ignorespaces Sample Mastermind Game (6,4)\relax }}{2}{figure.caption.1}}
\citation{knuth}
\citation{ga}
\@writefile{toc}{\contentsline {section}{\numberline {2}Problem}{3}{section.2}}
\newlabel{sec:problem-2}{{2}{3}{Problem}{section.2}{}}
\@writefile{toc}{\contentsline {section}{\numberline {3}Previous Approaches}{3}{section.3}}
\newlabel{sec:problem-3}{{3}{3}{Previous Approaches}{section.3}{}}
\@writefile{toc}{\contentsline {subsection}{\numberline {3.1}Enumeration}{3}{subsection.3.1}}
\newlabel{sec:problem-3.1}{{3.1}{3}{Enumeration}{subsection.3.1}{}}
\citation{ga}
\citation{ga}
\@writefile{lof}{\contentsline {figure}{\numberline {2}{\ignorespaces Average and maximum number of guesses for 6 colors, 4 pegs\relax }}{4}{figure.caption.2}}
\@writefile{toc}{\contentsline {subsection}{\numberline {3.2}Genetic}{4}{subsection.3.2}}
\newlabel{sec:problem-3.2}{{3.2}{4}{Genetic}{subsection.3.2}{}}
\@writefile{lof}{\contentsline {figure}{\numberline {3}{\ignorespaces Algorithm Performance Table\relax }}{4}{figure.caption.3}}
\@writefile{toc}{\contentsline {section}{\numberline {4}Reinforcement Learning}{5}{section.4}}
\newlabel{sec:problem-4}{{4}{5}{Reinforcement Learning}{section.4}{}}
\@writefile{toc}{\contentsline {section}{\numberline {5}Implementation}{5}{section.5}}
\newlabel{sec:problem-5}{{5}{5}{Implementation}{section.5}{}}
\@writefile{toc}{\contentsline {section}{\numberline {6}Results}{6}{section.6}}
\newlabel{sec:problem-6}{{6}{6}{Results}{section.6}{}}
\@writefile{lof}{\contentsline {figure}{\numberline {4}{\ignorespaces Average required guesses and speed for tested methods (6 colors, 4 pegs). The Q learning agent was trained for 5 million games before testing with $\alpha = 0.01$.\relax }}{6}{figure.caption.4}}
\@writefile{lof}{\contentsline {figure}{\numberline {5}{\ignorespaces Average required guesses and speed for tested methods (9 colors, 6 pegs). The Q learning agent was trained for 1 million games before testing with $\alpha = 0.1$.\relax }}{6}{figure.caption.5}}
\bibcite{knuth}{1}
\bibcite{ga}{2}
\bibcite{entropy}{3}
\@writefile{lof}{\contentsline {figure}{\numberline {6}{\ignorespaces Average required guesses and speed for tested methods (12 colors, 8 pegs). The Q learning agent was trained for 1 million games before testing with $\alpha = 0.1$.\relax }}{7}{figure.caption.6}}
\@writefile{toc}{\contentsline {section}{\numberline {7}Conclusion}{7}{section.7}}
\newlabel{sec:problem-7}{{7}{7}{Conclusion}{section.7}{}}
